{
    "dependencias":[
        {
            "nombre": "Coordinación General Jurídica",
            "siglas": "CGJ",
            "clave": "unhr"
        },
        {
            "nombre": "Instituto de la Defensoría Pública",
            "siglas": "IDP",
            "clave": "wdfu"
        },
        {
            "nombre": "Instituto de Selección y Capacitación del Estado",
            "siglas": "ISCE",
            "clave": "mcgi"
        },
        {
            "nombre": "Jefatura de Oficina del Gobernador",
            "siglas": "JOG",
            "clave": "tdgk"
        },
        {
            "nombre": "Procuraduría General de Justicia del Estado",
            "siglas": "PGJE",
            "clave": "egsb"
        },
        {
            "nombre": "Secretaría de Administración",
            "siglas": "SA",
            "clave": "dgke"
        },
        {
            "nombre": "Secretaría de Finanzas",
            "siglas": "SF",
            "clave": "odlr"
        },
        {
            "nombre": "Secretaría de la Función Pública",
            "siglas": "SFP",
            "clave": "ldnt"
        },
        {
            "nombre": "Secretaría de Seguridad Pública",
            "siglas": "SSP",
            "clave": "peiy"
        },
        {
            "nombre": "Secretaría General de Gobierno",
            "siglas": "SGG",
            "clave": "kfhy"
        },
        {
            "nombre": "Organismo Regularizador de la Tenencia de la Tierra en Zacatecas",
            "siglas": "ORTTZ",
            "clave": "ytod"
        },
        {
            "nombre": "Patronato Estatal de Promotores Voluntarios",
            "siglas": "PEPV",
            "clave": "kdjg"
        },
        {
            "nombre": "Secretaría de Desarrollo Social",
            "siglas": "SDS",
            "clave": "aket"
        },
        {
            "nombre": "Secretaría de las Mujeres",
            "siglas": "SM",
            "clave": "ñskg"
        },
        {
            "nombre": "Secretaría del Zacatecano Migrante",
            "siglas": "SZM",
            "clave": "uroe"
        },
        {
            "nombre": "Sistema Estatal para el Desarrollo Integral de la Familia",
            "siglas": "SEDIF",
            "clave": "lsjg"
        },
        {
            "nombre": "Colegio de Bachilleres del Estado de Zacatecas",
            "siglas": "CBEZ",
            "clave": "kdjh"
        },
        {
            "nombre": "Colegio de Educación Profesional Técnica del Estado de Zacatecas",
            "siglas": "CEPTEZ",
            "clave": "lrjh"
        },
        {
            "nombre": "Colegio de Estudios Científicos y Tecnológicos del Estado de Zacatecas",
            "siglas": "CECTZ",
            "clave": "gfpt"
        },
        {
            "nombre": "Consejo Zacatecano de Ciencia, Tecnología e Innovación",
            "siglas": "CZCTI",
            "clave": "dkep"
        },
        {
            "nombre": "Escuela Estatal de Conservación y Restauración de Zacatecas",
            "siglas": "EECRZ",
            "clave": "ewcd"
        },
        {
            "nombre": "Instituto de Cultura Física y Deporte del Estado de Zacatecas",
            "siglas": "ICFDEZ",
            "clave": "jftt"
        },
        {
            "nombre": "Instituto Tecnológico Superior de Fresnillo",
            "siglas": "ITSF",
            "clave": "ldkg"
        },
        {
            "nombre": "Instituto Tecnológico Superior de Jerez",
            "siglas": "ITSJ",
            "clave": "nfot"
        },
        {
            "nombre": "Instituto Tecnológico Superior de Loreto",
            "siglas": "ITSL",
            "clave": "pejg"
        },
        {
            "nombre": "Instituto Tecnológico Superior de Nochistlán",
            "siglas": "ITSN",
            "clave": "lksd"
        },
        {
            "nombre": "Instituto Tecnológico Superior Zacatecas Norte",
            "siglas": "ITSZN",
            "clave": "lkjh"
        },
        {
            "nombre": "Instituto Tecnológico Superior Zacatecas Occidente",
            "siglas": "ITSZO",
            "clave": "uyvb"
        },
        {
            "nombre": "Instituto Tecnológico Superior Zacatecas Sur",
            "siglas": "ITSZS",
            "clave": "ieog"
        },
        {
            "nombre": "Instituto Zacatecano de Cultura",
            "siglas": "IZC",
            "clave": "añsj"
        },
        {
            "nombre": "Instituto Zacatecano de Educación para Adultos",
            "siglas": "IZEA",
            "clave": "uñjd"
        },
        {
            "nombre": "Secretaría de Educación",
            "siglas": "SE",
            "clave": "dkfb"
        },
        {
            "nombre": "Universidad Politécnica de Zacatecas",
            "siglas": "UPZ",
            "clave": "jdht"
        },
        {
            "nombre": "Universidad Politécnica del Sur de Zacatecas",
            "siglas": "UPSZ",
            "clave": "orut"
        },
        {
            "nombre": "Universidad Tecnológica del Estado de Zacatecas",
            "siglas": "UTEZ",
            "clave": "ñsjf"
        },
        {
            "nombre": "Instituto de Seguridad y Servicios Sociales para los Trabajadores del Estado",
            "siglas": "ISSSTE",
            "clave": "bvcf"
        },
        {
            "nombre": "Régimen Estatal de Protección Social en Salud ",
            "siglas": "REPSS",
            "clave": "etro"
        },
        {
            "nombre": "Servicios de Salud de Zacatecas",
            "siglas": "SSZ",
            "clave": "hfir"
        },
        {
            "nombre": "Secretaría del Campo",
            "siglas": "SC",
            "clave": "kdtt"
        },
        {
            "nombre": "Junta de Protección y Conservación de Monumentos y Zonas Típicas del Estado",
            "siglas": "JPCMZTE",
            "clave": "pwbt"
        },
        {
            "nombre": "Secretaría de Infraestructura",
            "siglas": "SI",
            "clave": "ldht"
        },
        {
            "nombre": "Secretaría del Agua y Medio Ambiente",
            "siglas": "SAMA",
            "clave": "peuty"
        },
        {
            "nombre": "Consejo Estatal de Desarrollo Económico de Zacatecas",
            "siglas": "CEDEZ",
            "clave": "mdit"
        },
        {
            "nombre": "Secretaría de Economía",
            "siglas": "SE",
            "clave": "peut"
        },
        {
            "nombre": "Secretaría de Turismo",
            "siglas": "ST",
            "clave": "ncht"
        }
    
        
    ]
}